------------------------------------------------------------------------
r880677 | scripty | 2008-11-06 07:08:44 +0000 (Thu, 06 Nov 2008) | 1 line

SVN_SILENT made messages (.desktop file)
------------------------------------------------------------------------
r885350 | scripty | 2008-11-17 07:10:44 +0000 (Mon, 17 Nov 2008) | 1 line

SVN_SILENT made messages (.desktop file)
------------------------------------------------------------------------
r906169 | brandybuck | 2009-01-05 17:50:16 +0000 (Mon, 05 Jan 2009) | 2 lines

backport style improvements

------------------------------------------------------------------------
